{
	"development": {
		"providerUrl": "https://rinkeby.infura.io/v3/62349edb370e4523b328b8823d211551",
		"jwtSecret": "asthalapistathavalachi",
		"adminSecretKey": "avantekdhdfhjdfbjdfjjkndjkqizgjakdjkadatg",
		"mysqlHost": "127.0.0.1",
		"mysqlUser": "root",
		"mysqlPassword": "attinad@123",
		"mysqlDb": "vikthor_middleware",
		"blobName" : "testblobstore2",
		"blobKey" : "d8dpBdjHn+35huGcQbpTRCKm40fH3jaSCEAR6JiN394l3FIsWOQH5qI/FyM9tX+2iznO4wfNx1Hn9hNis1edoQ==",
		"OwnerAddress" : "0xC641AD8Dd7875608F3fA4372aB559D64992ee356",
		"OwnerSetFee" : "0.1"
	},
	"test": {
		"providerUrl": "https://bbaiadmin.blockchain.azure.com:3200/g31t5CfpLEuZr7EZ07H4xbOs",
		"mongoUrl": "mongodb://127.0.0.1:27017/testethereumexplorer"
	}
}